genre,artist,album,file_name,y,rate,year,duration,mfcc_mean_1,mfcc_mean_2,mfcc_mean_3,mfcc_mean_4,mfcc_mean_5,mfcc_mean_6,mfcc_mean_7,mfcc_mean_8,mfcc_mean_9,mfcc_mean_10,mfcc_mean_11,mfcc_mean_12,mfcc_mean_13,mfcc_mean_14,mfcc_mean_15,mfcc_mean_16,mfcc_mean_17,mfcc_mean_18,mfcc_mean_19,mfcc_mean_20,mfcc_std_1,mfcc_std_2,mfcc_std_3,mfcc_std_4,mfcc_std_5,mfcc_std_6,mfcc_std_7,mfcc_std_8,mfcc_std_9,mfcc_std_10,mfcc_std_11,mfcc_std_12,mfcc_std_13,mfcc_std_14,mfcc_std_15,mfcc_std_16,mfcc_std_17,mfcc_std_18,mfcc_std_19,mfcc_std_20,contrast_mean_1,contrast_mean_2,contrast_mean_3,contrast_mean_4,contrast_mean_5,contrast_mean_6,contrast_mean_7,contrast_std_1,contrast_std_2,contrast_std_3,contrast_std_4,contrast_std_5,contrast_std_6,contrast_std_7,centroid_mean,centroid_std,centroid_skew,rolloff_mean,rolloff_std,z_rate_mean,z_rate_std,artist_int,genre_int
,"Alex Da Kid, Joseph Angel",American Funeral,American Funeral.mp3,[0. 0. 0. ... 0. 0. 0.],44100,2017,195.4777416997816,-130.03127,148.97137,-10.984595,21.213728,6.378429,17.460827,-6.808239,11.206636,-7.7162685,-1.6332756,-6.966736,-7.930664,-3.9996452,-2.4222808,-4.2700906,-3.5899873,-6.284461,1.9787767,-2.3066137,-2.3476992,102.32912,39.644123,26.84235,23.224028,21.7288,14.536086,12.78686,12.191567,11.664187,11.316842,8.85004,9.951935,9.113968,9.441404,8.630757,9.538996,8.81298,9.579567,8.625812,8.570546,17.251700856165957,11.314454309313428,16.793728622331155,19.009539485632097,18.971856225618257,20.296766382129203,48.785706496384236,7.165193993530557,3.870716701250428,4.596099323624028,4.6805305357166915,3.912041742564514,4.352335979221343,6.164253870046781,2290.5770960117493,1374.8054856288195,1.5932171254191618,4638.0167476377255,3062.675307741673,0.047424479630950256,0.04438890210200623,3.0,7.0
pop,Allan Rayman,Unknown Album,Left Alone.mp3,"[1.2859055e-06 2.4997196e-06 1.5818750e-06 ... 0.0000000e+00 0.0000000e+00
 0.0000000e+00]",44100,2020,142.66923302347936,-246.55415,147.38214,20.495687,28.95109,8.397951,8.985647,-4.7940135,0.80950254,3.336524,-2.0121996,2.837941,2.8216624,-0.13630292,1.0675126,1.4298782,-0.4674616,-2.2589474,1.4070803,-1.1506847,-3.4014037,102.53061,40.440315,44.001873,31.840912,21.981709,19.208712,19.052616,16.643194,15.988382,13.987975,12.300283,11.660043,12.250132,10.425479,9.571083,9.342166,8.524075,8.50696,8.710458,8.676746,18.21664260938226,13.059831316179764,16.825223594897412,19.220350739425335,18.64363651006147,20.591673423830837,45.80761110467905,6.123159441771103,5.567916786380545,4.567723806520093,5.04577662096618,4.92219802637415,5.7083567595370495,7.723850773677799,1373.9780918659994,1163.7844626396347,1.9154096246018824,2681.785097401771,2653.5914080007456,0.023204413299063517,0.031256123948142735,5.0,6.0
pop,Allan Rayman,mp3uk.net,Left Alone [mp3uk.net].mp3,"[1.2859055e-06 2.4997196e-06 1.5818750e-06 ... 0.0000000e+00 0.0000000e+00
 0.0000000e+00]",44100,2020,142.66923302347936,-246.55415,147.38214,20.495687,28.95109,8.397951,8.985647,-4.7940135,0.80950254,3.336524,-2.0121996,2.837941,2.8216624,-0.13630292,1.0675126,1.4298782,-0.4674616,-2.2589474,1.4070803,-1.1506847,-3.4014037,102.53061,40.440315,44.001873,31.840912,21.981709,19.208712,19.052616,16.643194,15.988382,13.987975,12.300283,11.660043,12.250132,10.425479,9.571083,9.342166,8.524075,8.50696,8.710458,8.676746,18.21664260938226,13.059831316179764,16.825223594897412,19.220350739425335,18.64363651006147,20.591673423830837,45.80761110467905,6.123159441771103,5.567916786380545,4.567723806520093,5.04577662096618,4.92219802637415,5.7083567595370495,7.723850773677799,1373.9780918659994,1163.7844626396347,1.9154096246018824,2681.785097401771,2653.5914080007456,0.023204413299063517,0.031256123948142735,5.0,6.0
pop,ATL,Unknown Album,Танцуйте.mp3,"[ 8.5107400e-05 -2.5522641e-03  2.0041047e-03 ...  3.4286913e-07
  2.9103628e-08 -2.0148630e-07]",44100,2020,220.9282740781551,-109.6541,109.441956,-4.7808385,43.194218,-5.798009,26.866882,-12.482294,17.882954,-2.8629556,5.139866,-5.1229234,6.7898664,-1.9465017,4.061198,-0.434406,1.0051891,-3.259045,1.8428869,2.333409,-0.35087815,109.96323,39.3357,25.991585,19.563995,16.597761,15.179269,12.503364,11.168088,11.533863,13.140283,11.329675,9.289641,9.987493,9.963788,9.782767,9.726299,10.559803,9.010987,9.261266,7.9613953,19.34880589831393,11.647836760316258,15.924189807165991,16.530222713846495,15.759339569475395,17.349804542338948,54.61786477038545,6.089754214329628,4.003597280887274,4.44297288736697,4.438747728606686,3.305478217541621,3.6445072578019726,4.8996311064395766,3651.024396910108,1675.8976202997558,0.6296823714349242,8024.484743771854,3377.101226273363,0.065649271575464,0.06308548985292012,0.0,6.0
Pop,AnnenMayKantereit,German Top 100 Single Charts,68 Pocahontas.mp3,"[ 0.0000000e+00  0.0000000e+00  0.0000000e+00 ... -6.7722996e-09
  1.0410385e-07 -1.4474652e-08]",44100,2016,181.81181977673322,-170.92688,103.538284,-6.697423,49.584183,0.32016596,30.372572,3.4607232,17.03483,0.4130236,4.1298904,-2.2468414,-1.0485631,-4.119825,-0.6028606,-3.8639157,1.2227747,-3.6902838,-3.1739528,-4.896096,-2.784842,111.39939,31.300497,19.313705,18.12199,16.527273,12.848847,11.255309,9.364177,8.463131,9.603651,7.6016207,9.9899645,8.447332,9.429366,6.977283,7.0680203,7.344727,6.8016033,6.8288383,6.241775,17.796238164419655,11.789254075935556,16.81506040947963,18.12332446549416,17.48833679382059,18.16799706489258,54.95123015798711,6.419797847911054,3.7712190664337335,5.292724392398161,4.770901017016755,3.7372822326252906,3.810917618136488,3.5217873182865937,3440.1863415476123,1556.8381748806764,0.9433321223230373,7617.420485883683,2934.440140271296,0.06538300919787207,0.055138016852759195,8.0,3.0
Pop,AnnenMayKantereit,Unknown Album,Ausgehen.mp3,"[-4.8343973e-05  1.7983517e-05 -4.9655402e-05 ... -2.9007651e-05
 -9.7822340e-07 -2.9557385e-05]",44100,0,174.30933039499547,-144.05432,131.09131,-22.954052,47.069828,-5.799136,25.970715,-5.0131373,6.7284083,0.4104991,-0.7282981,-2.3876262,0.3373106,0.27128175,-4.1904116,0.91154385,1.9167205,0.29391474,-2.184372,0.65593,0.99161696,98.18348,41.76388,23.01915,22.302473,19.802404,18.456991,16.747261,11.807344,11.988343,9.532275,9.813575,9.193545,9.297126,8.796867,7.720087,7.7990766,7.06186,7.2224064,6.947171,6.5681186,18.60353096672636,11.853225284740905,16.421671718693705,17.061555743252526,17.127509998046403,18.046822883340518,53.94775256427813,5.857625176331243,4.117019097810556,4.598262387910634,4.855518645413554,3.716695268749723,3.960064715523851,4.542298421378331,2869.800456263457,1640.3451528964313,1.6224285378992127,5894.741980537738,3045.2607455515404,0.0661925191602799,0.06644053782245785,8.0,3.0
Pop,AnnenMayKantereit,Unknown Album,SometimesILikeToLie.mp3,"[0.0000000e+00 0.0000000e+00 0.0000000e+00 ... 9.3843425e-07 1.1034131e-06
 1.3277486e-06]",44100,0,189.3877551020408,-131.01657,135.95187,-36.415554,16.93916,-19.527517,6.912571,-8.244828,2.3107805,-0.18225613,-6.8177695,-1.8596107,-8.419636,-6.5635066,-2.1651316,-7.516819,-9.811378,-7.51579,-8.308226,-8.010769,-3.6549938,122.73844,42.181553,28.561909,25.152433,20.305048,16.11564,12.209174,11.657784,10.538568,10.287002,9.28387,9.869498,9.182607,10.454168,8.795736,8.909156,7.570365,7.559397,7.226233,6.2947197,19.799825508166727,11.822229380276438,15.76208243720811,16.928943792544484,16.17459803341162,18.551785555302438,51.12704429906312,8.020436775101057,4.691604248932129,5.450336863889743,5.498352560742886,3.9899138792677356,3.9639267813495054,9.061236706059269,2426.4207424052374,1143.2559601765076,0.8455233127725283,4756.955451460198,2418.110630217156,0.0600045032510575,0.043209039778492934,8.0,3.0
Pop,AnnenMayKantereit,Unknown Album,Warte auf mich [Подожди].mp3,"[-1.6224532e-05 -2.0689208e-07  1.4962995e-05 ...  0.0000000e+00
  0.0000000e+00  0.0000000e+00]",44100,0,166.16000656437188,-170.74745,154.89713,-13.890371,33.640438,2.6590524,17.742184,1.7991275,8.686431,0.86486655,3.473851,-2.6526556,0.9568805,2.211135,2.5157323,1.448367,1.6130481,0.42865926,-0.7803551,2.8484538,2.4218826,91.66202,42.230747,22.845629,19.523558,17.756828,17.078846,14.119633,11.1484585,13.932968,9.332169,11.265462,9.91632,9.739003,9.180039,8.642528,7.950764,7.8613186,7.895859,8.07312,7.966696,19.47338820409069,10.065427499440398,16.141967562468732,19.207760410610874,18.30373189780482,18.462763488383132,50.13056086329976,6.148411319178111,3.5858692729690045,4.4678991731646045,4.819965695778489,4.022482901897754,4.060066606502497,4.1383154750863955,2117.6752158266945,1371.69294407504,2.2605297353267715,4369.280207077129,3081.307486442864,0.039564742871312224,0.04749324436015247,8.0,3.0
(15)Rap,Axiom,Banlieue 13 Ultimatum,04 La Tour Des Miracles.mp3,[0. 0. 0. ... 0. 0. 0.],44100,2009,258.48163265306124,-106.85018,113.29351,-19.719637,41.14778,-25.281584,21.937096,-17.371878,5.2507377,2.8943813,4.4313583,-2.9366615,7.2275233,-6.769341,-3.7009702,-3.7246406,-2.8200648,-7.1885557,-2.112058,-1.547382,-3.5745003,93.31701,44.50108,23.788774,20.911783,16.93015,15.749378,13.834963,12.301678,12.810719,11.528352,10.481878,10.783355,9.859441,9.134835,8.460607,9.478036,8.509219,7.4766397,8.054691,7.8995914,17.492193363155174,12.459125247205495,15.07761394032894,17.839614467010456,16.0547292395152,17.395237300514363,56.56822344136974,6.109588579474411,4.6588399949890364,4.864719859695282,5.07292001379717,3.2080347935028013,3.539764560040577,5.234887972219499,3609.908142016172,1645.306485746711,1.6104198453258707,7667.02272811026,2399.4262034114845,0.0848471368205301,0.0759293331617661,11.0,0.0
Hip-Hop,Anacondaz,Выходи За Меня,02 Чего Ради.mp3,"[-4.1567634e-07  1.0145811e-08  2.8133252e-07 ...  0.0000000e+00
  0.0000000e+00  0.0000000e+00]",44100,2017,214.65708580962544,-105.44761,141.90317,-53.62389,53.613483,5.8780675,16.715307,-5.144904,10.867635,0.43896252,7.37513,3.8223968,-2.8525963,1.3194708,3.0443199,2.200346,-3.500948,-2.4072616,-0.34037307,-0.68646866,-1.355502,97.233246,38.276142,27.174288,23.88072,18.571325,15.567433,12.841534,11.747856,10.60574,10.546659,10.36469,9.451081,8.252232,7.801112,7.5523443,7.571753,7.2390413,6.753165,6.399291,7.3451858,17.181527501076804,11.288289359658679,15.094681632277508,16.11449745746152,16.044976800359354,17.635019645450715,52.22466212449617,6.315750083229756,4.046961427727821,4.508519572210909,4.25173900269234,3.2860002648419275,3.2920765527851286,3.9309291978414658,2643.5054682530204,1035.6082819914866,2.2493474838223784,5124.442058278147,1816.1175216260472,0.06081893213242059,0.042749286940431674,6.0,1.0
Hip-Hop,Anacondaz,Выходи За Меня,"Мама, Я Люблю.mp3","[0.0000000e+00 0.0000000e+00 0.0000000e+00 ... 9.4927488e-10 5.1125854e-10
 2.4063229e-10]",44100,2017,225.21037014461155,-112.06151,143.94656,-26.444973,29.17387,-2.6505532,16.633226,-7.184187,7.6107645,-4.201822,2.2135453,-0.5961927,0.2660007,-0.34664428,0.6894577,-2.2937746,-0.9025628,-3.7789176,-2.706738,-3.034437,-1.9660976,82.03031,38.79841,27.364925,19.45461,17.828959,16.700047,12.506892,11.852419,10.795634,10.162019,9.793987,10.977252,9.807946,8.6527,8.314056,7.814297,7.3385644,6.830302,7.390307,6.7370596,21.618657755203962,10.461159384207177,14.751583297193807,16.383403472407135,16.256520527915047,17.457544036785272,50.72065024806166,6.270373159169367,3.7638685490959345,4.262796982462695,4.36669914857022,3.292023844661209,3.2490794635380684,3.811244369819528,2645.881365683428,1246.5492233415837,1.722091249401885,5292.30864220789,2617.8540371660006,0.055600568559150465,0.04595768140520525,6.0,1.0
Hip-Hop,Anacondaz,Дети и Радуга,Корабль-призрак.mp3,"[ 0.0000000e+00  2.2500439e-12 -8.9372173e-13 ...  0.0000000e+00
  0.0000000e+00  0.0000000e+00]",44100,2013,177.4371097290371,-130.86145,113.98349,-10.745919,60.025948,-4.56779,33.427223,0.6816585,12.202351,-4.501529,12.936589,-4.4881287,1.1360043,-1.8826941,-0.7726584,-2.2197356,-2.4659696,-3.3464673,-1.7877437,0.83288383,-3.4132423,86.88408,47.74197,30.318731,27.63051,23.25974,18.697763,14.729272,13.730006,12.591509,10.584825,10.285214,11.034976,9.853678,8.815402,8.294663,7.769146,7.388733,7.9747477,8.07873,7.9882183,15.495200557649078,13.04607031487779,16.392765381829243,16.220762809193655,16.47601892728166,16.736268604442525,55.034412755260135,5.192204899398399,4.8228060301556015,4.905340242226287,4.754526571812647,4.022434772135752,3.2350295098047464,6.973751973117041,3171.364276801614,1888.6430717898488,1.0737024530157366,6544.898791800275,3251.066026063725,0.06276006943876382,0.06597499750561531,6.0,1.0
Hip-Hop,Anacondaz,Дети и Радуга,Смертельное оружие.mp3,"[0.0000000e+00 4.3156142e-14 5.7253979e-14 ... 7.1687793e-07 8.3294805e-07
 8.2741974e-07]",44100,2013,250.40395037034722,-94.24126,114.466354,-23.73986,55.145283,-22.736353,32.588528,-7.4639406,12.736871,-7.2240486,14.157396,-3.8641381,-0.17624976,-2.772478,-0.8735307,-2.1358845,-5.0546217,-2.2160947,-3.9085069,-0.6802327,-3.4590576,86.2964,37.65839,29.319387,27.991957,21.044518,17.071135,13.332006,14.251289,13.224934,10.379953,9.893483,9.146556,10.132742,8.336204,8.688028,7.7252445,7.647931,7.6738467,7.963311,7.062588,16.833210623093667,11.342799827330586,15.945994658903286,17.371551751814607,16.785136068822307,15.79451882660577,56.32894227814329,5.854736677135977,4.131920061742677,4.809304331007015,5.073488944691651,4.306564004628395,2.884577582379561,5.20827588780902,3781.745542579856,1530.3863026810996,0.6628066737344613,7918.390356462294,2761.0795960953565,0.09305839087497102,0.06577677692536912,6.0,1.0
Hip-Hop,Anacondaz,Дети и Радуга,Трус.mp3,"[ 0.0000000e+00  0.0000000e+00  0.0000000e+00 ... -1.5962552e-05
 -3.6733759e-06 -4.1947061e-07]",44100,2013,184.25569897177863,-108.76831,122.008286,-8.705267,58.312695,-12.335663,31.860287,3.0211792,17.779465,-1.6556494,14.831656,-2.0052135,4.695345,2.585934,4.9887843,2.0332053,2.029208,3.0812485,0.8531493,1.1698629,0.04929512,64.4265,35.107803,25.20345,22.142473,18.510317,16.538418,13.829177,12.73315,12.470378,11.0794525,10.022618,9.590575,9.797103,9.08669,8.717277,7.959219,8.183684,7.3755364,8.0447645,6.636072,14.823331103431265,12.327083340057872,17.00466710284468,17.80310780287645,17.43935705084784,17.39465450592212,56.362929438431884,4.979849499422519,4.363619388558969,4.9043292193713555,4.7459486814826555,3.6463766339861365,2.981942248822928,3.264022452088716,3052.732361194574,1547.0377268450611,1.1914938458080908,6654.508793801004,2839.83875086082,0.05367647565615351,0.04996725303566901,6.0,1.0
Uztop.net,"AnnenMayKantereit, Parcels",Unknown Album,Can't get you out of my head live.mp3,[0. 0. 0. ... 0. 0. 0.],48000,2023,244.9888,-112.04168,145.6886,-15.993517,50.364243,-17.739923,27.485851,0.7623657,10.003516,-1.3927939,3.2778723,-0.45652807,1.3237346,4.104222,2.0905259,1.1693271,0.08841125,-0.20762442,-0.005322166,2.1831124,-2.2221067,88.13985,35.97523,20.827318,15.941112,16.568632,15.997645,12.654566,11.462781,12.53483,10.246422,8.901793,9.064629,9.898997,8.420383,8.584092,8.122802,7.7742047,7.2521024,7.45857,7.9421816,17.57581438687402,11.38262383652293,16.337683697358962,17.339823476599534,19.497022675956213,16.37871429400678,54.95210088549886,5.265732855477358,3.9283882149473532,4.521400331326124,4.376613611545443,4.817177856541785,2.960114740444353,5.100724328548153,2633.1494975074584,1331.265681713737,1.3380019067706646,5897.918322409964,2826.339809227795,0.04311366297821496,0.04072579167074943,9.0,4.0
Pop,Aqualung,A Lot Like Love,09 Brighter Than Sunshine.mp3,[0. 0. 0. ... 0. 0. 0.],44100,2005,243.08760593289344,-141.76451,154.89578,-25.008774,19.026102,-4.771201,21.792145,-8.756,3.5871413,-7.6366153,2.3781195,-6.8448524,5.191209,-4.2153816,-1.6757673,-1.7245976,-1.7886456,-3.1466627,-0.8471141,0.2663534,-3.2580814,113.219894,43.73081,23.529295,20.991117,15.992697,11.632309,14.231984,12.231225,9.880822,11.76188,8.73284,10.109088,9.134267,9.233573,7.834209,9.303959,8.09676,7.6298976,7.3035836,8.334653,18.169967928793845,11.339825806941514,16.47604142364797,18.93126114426892,19.242852638703706,18.516820575716128,41.306935594239874,6.177338628802269,4.134898255507335,4.347736724528476,5.083598254819556,4.036150853009644,3.8519635027267283,8.023451296680607,2359.7770735465224,1254.7952159256954,2.3796650542319253,4535.549010442805,2944.3876140070824,0.05343995797635264,0.0376578295683966,10.0,3.0
electronic,Alexey Kosenko,"Loungebar, Vol. 6",Melancholy.mp3,[0. 0. 0. ... 0. 0. 0.],44100,0,216.27474221096034,-294.2268,207.934,49.044773,-8.369916,3.487704,2.8390536,-10.677432,-13.699341,-8.495796,-4.9309716,-5.4527144,-9.385178,-12.627159,-9.095047,-2.3502529,-1.7244731,-5.291499,-5.25242,-2.8799298,-2.290357,55.067944,37.08839,29.015411,21.97859,13.718961,11.007736,11.611687,10.079904,8.476584,8.153731,8.46126,8.621743,7.0991545,7.716478,7.699923,7.5996375,7.288685,6.7109165,6.9533854,6.4760385,23.285650725917538,11.435269109708091,18.49058048910526,23.20721378661666,26.223407276875946,26.071099022022057,37.085011704219774,6.668698475945777,3.7320891392820887,4.374379028984495,4.802579788276017,4.242910734822144,5.040816434414106,5.231844979064773,620.275890688647,258.10495411106695,13.100637877500587,945.6643830542536,460.3560240641388,0.02291259896784678,0.012532290313916441,4.0,5.0
Meditation,Ananda Giri,The Oneness Mantra,01 The Oneness Mantra.mp3,[0. 0. 0. ... 0. 0. 0.],22050,0,2459.7420408163266,-200.8903,154.31535,-4.521259,22.06031,11.93026,-5.2258167,-6.76723,-0.33854958,-10.7176485,8.09419,-5.407216,-6.4787436,-3.189903,-12.694525,-7.1796217,0.6713653,-9.7697935,-4.186228,-5.7722096,-10.674842,69.034935,29.906885,22.09506,16.132593,14.257016,13.317653,12.524273,9.771303,17.302853,10.999322,10.6939745,9.7034645,8.908159,10.286747,8.778647,8.3605795,12.42318,9.644613,7.5721326,9.082843,24.724731850613253,21.33001387471116,23.358542443929732,22.095025783786337,26.26057780991426,34.65492845809434,47.5712332059929,5.8182410449886595,4.363582436561796,4.794615958552293,4.2460538309665194,4.440625378312666,9.920585399991731,6.971238376807673,978.8292543647618,440.08486213519916,2.6423538656589045,1834.0713156130523,975.701433483492,0.04823186689470641,0.02706005884320919,7.0,2.0
,Afterclapp,Unknown Album,Capitao De Areia (Original mix).mp3,"[-7.3451029e-06 -7.3550991e-06 -4.7716003e-06 ...  0.0000000e+00
  0.0000000e+00  0.0000000e+00]",44100,0,235.0979404319155,-222.6322,151.42993,-1.9008937,8.31799,4.717806,7.6136374,0.11707091,-3.0889413,-6.7362905,-5.483005,-6.9588485,-5.915605,-0.65069073,-0.72677493,-3.0587363,-4.3759117,-2.8554223,-5.229567,-3.9008582,-1.2767367,74.04376,35.754776,30.537775,21.707836,15.855463,15.283177,12.985287,14.1447,10.987608,10.519882,12.289248,10.719293,10.347631,9.52638,9.755095,10.317396,10.044672,9.003845,8.614593,8.353085,20.02729313613246,10.939745040422322,15.907271042391445,18.539969982227213,18.758060739266515,18.81561652108427,50.59098845670744,5.739241182630845,3.91618460408629,4.158978221836943,4.516679554138793,4.059172119582601,3.8901095646735047,6.6564017568995295,1545.2373557689364,758.932360135271,0.9747355642104238,2993.19287941467,1937.3654770385792,0.03499723600734749,0.02505465725536401,1.0,7.0
,Alai Oli,Unknown Album,Воруй Убивай (Регги).mp3,"[ 0.00000000e+00 -9.70873902e-12  5.77996852e-12 ... -5.97993676e-07
 -5.67465577e-07  1.01737896e-07]",44100,0,319.33652312599685,-184.47626,117.65491,-26.305452,38.10077,4.287168,13.040456,-7.8770037,5.970061,-2.7988744,-3.2558022,-0.79122275,4.1244707,-4.5631523,-4.2836747,-1.5964425,-3.0604498,-4.745172,-6.1247363,-3.60032,-4.086786,121.00443,42.44467,31.755823,21.410307,20.05516,15.98847,14.469643,13.067464,12.080618,11.890986,10.4018345,9.771811,9.616167,8.834408,7.869859,8.349748,8.259076,8.137344,8.47117,7.923322,17.28381015668999,12.097865126237222,16.262605831569967,17.62904952056118,17.75917925493866,20.18109716344006,53.84927132712912,6.715883727280357,4.582291016718141,4.960526216166943,4.659976148268495,3.881769987011264,4.430600719561,5.076607433375057,2826.825796318151,1290.6156695415452,1.5601033619301694,5750.784498462891,2653.780679534936,0.06692154852060385,0.04841246361138556,2.0,7.0
,Alai Oli,Unknown Album,Зачем ты под черного легла.mp3,"[-7.5320365e-08 -7.7999601e-08  3.6007329e-08 ...  0.0000000e+00
  0.0000000e+00  0.0000000e+00]",44100,0,282.84458919859037,-154.73674,145.0177,-20.258453,49.50297,-1.1760056,18.899797,-6.9477572,10.000618,3.5904377,3.8042471,4.380646,3.0818756,-1.5519743,3.2104182,2.1438522,-2.3050191,1.6817187,2.8618693,1.9575901,-5.139452,96.16965,33.29034,33.940792,21.446081,20.987421,16.400997,14.376919,12.58118,13.489538,14.278038,10.4944105,9.090856,9.32749,8.866637,7.6435833,8.028685,7.3984036,7.9065204,7.8062162,7.6970553,16.455799125426353,11.152357733463681,15.755202879981708,19.035319666806156,17.93520879331552,19.065162560353162,54.445812233785595,5.388178663679774,3.881698870424068,4.651729415348357,5.18923598327746,4.105812429299605,4.619722878356385,4.010988239641195,2380.755632051796,1126.6968028873237,1.1065382040677654,5052.645914385962,2480.982180543527,0.04835827513374887,0.03602630257897664,2.0,7.0
